…
It is also worth mentioning that the model is not defined in a single, large
function with a lot of arguments. The model definition is separated into smaller
functions such as `fit()` and `set_engine()`. This allows for a more flexible
and easier to learn interface.

To make predictions the `predict()` function ran against a `parsnip` model and
returns a tibble. By default, the prediction variable is called `.pred_class`.
In the example, notice that the baked testing data is used.

```R
predict(iris_ranger, iris_testing)
## # A tibble: 60 x 1
##    .pred_class
##    <fct>      
##  1 setosa     
##  2 setosa     
##  3 setosa     
##  4 setosa     
##  5 setosa     
##  6 setosa     
##  7 setosa     
##  8 setosa     
##  9 setosa     
## 10 setosa     
## # … with 50 more rows
```
…
